#/afs/cern.ch/atlas/project/RTT/prod/Peter/logs/logfiles_15feb_20:45
#/afs/cern.ch/atlas/project/RTT/prod/Peter/logs/logfiles_16feb_00:35
/afs/cern.ch/atlas/project/RTT/prod/Peter/logs/logfiles_16feb_17:00
*error.log
#found in
Memory usage
